<?xml version="1.0" encoding="UTF-8"?>
<svg width="17px" height="23px" viewBox="0 0 17 23" version="1.1" xmlns="http://www.w3.org/2000/svg" xmlns:xlink="http://www.w3.org/1999/xlink">
    <!-- Generator: Sketch 39 (31667) - http://www.bohemiancoding.com/sketch -->
    <title>list</title>
    <desc>Created with Sketch.</desc>
    <defs></defs>
    <g id="Page-1" stroke="none" stroke-width="1" fill="none" fill-rule="evenodd">
        <path d="M13,11 L4,11 C3.7235,11 3.5,10.7765 3.5,10.5 C3.5,10.224 3.7235,10 4,10 L13,10 C13.2765,10 13.5,10.224 13.5,10.5 C13.5,10.7765 13.2765,11 13,11 L13,11 Z M13,15 L4,15 C3.7235,15 3.5,14.7765 3.5,14.5 C3.5,14.224 3.7235,14 4,14 L13,14 C13.2765,14 13.5,14.224 13.5,14.5 C13.5,14.7765 13.2765,15 13,15 L13,15 Z M13,19 L4,19 C3.7235,19 3.5,18.7765 3.5,18.5 C3.5,18.224 3.7235,18 4,18 L13,18 C13.2765,18 13.5,18.224 13.5,18.5 C13.5,18.7765 13.2765,19 13,19 L13,19 Z M16,6 L11.5,6 C11.2235,6 11,5.776 11,5.5 L11,1 L2,1 C1.448,1 1,1.448 1,2 L1,21 C1,21.552 1.448,22 2,22 L15,22 C15.552,22 16,21.552 16,21 L16,6 Z M12,1.6905 L12,5 L15.3095,5 L12,1.6905 Z M15,23 L2,23 C0.8955,23 0,22.1045 0,21 L0,2 C0,0.8955 0.8955,0 2,0 L11.4865,0 L11.49,0 L11.5,0 C11.66,0 11.7965,0.0805 11.888,0.1975 L16.8025,5.112 C16.92,5.2035 17,5.34 17,5.5 L17,5.5105 L17,5.513 L17,21 C17,22.1045 16.1045,23 15,23 L15,23 Z" id="list" fill="#B40D49"></path>
    </g>
</svg>